…
Attaching package: ‘dplyr’

The following objects are masked from ‘package:stats’:

    filter, lag

The following objects are masked from ‘package:base’:

    intersect, setdiff, setequal, union

> filter(Fatalities$year)
Error in UseMethod("filter") : 
  no applicable method for 'filter' applied to an object of class "c('double', 'numeric')"
> filter(Fatalities, year == '1985')
# A tibble: 48 × 35
   rownames state  year spirits unemp income emppop beertax baptist mormon drinkage     dry youngdrivers
      <dbl> <chr> <dbl>   <dbl> <dbl>  <dbl>  <dbl>   <dbl>   <dbl>  <dbl>    <dbl>   <dbl>        <dbl>
 1        4 al     1985    1.28  8.90 11333.   55.3  1.65    30.3    0.376     19.7 23.6           0.211
 2       11 az     1985    1.86  6.5  13727.   58.6  0.381    3.76   4.66      21    0             0.188
 3       18 ar     1985    1.12  8.70 11149.   55.0  0.577   23.1    0.376     21   35.9           0.189
 4       25 ca     1985    1.97  7.20 16985.   61.3  0.0953   1.76   1.65      21    0             0.168
 5       32 co     1985    2.05  5.90 15570.   67.9  0.191    2.30   1.86      21    0.0749        0.192
 6       39 ct     1985    2.41  4.90 19312.   65.9  0.239    0.100  0.294     20.3  0.0802        0.179
 7       46 de     1985    2.55  5.30 15409.   63.6  0.154    0.700  0.200     21    0             0.183
 8       53 fl     1985    2.27  6    14761.   56.4  1.14     8.52   0.400     20    0             0.170
 9       60 ga     1985    1.93  6.5  13364.   61.7  2.42    23.9    0.469     19.2  0.433         0.195
10       67 id     1985    1.18  7.90 11460.   61.3  0.358    1.06  24.7       19    0             0.213
# ℹ 38 more rows
# ℹ 22 more variables: miles <dbl>, breath <chr>, jail <chr>, service <chr>, fatal <dbl>, nfatal <dbl>,
#   sfatal <dbl>, fatal1517 <dbl>, nfatal1517 <dbl>, fatal1820 <dbl>, nfatal1820 <dbl>, fatal2124 <dbl>,
#   nfatal2124 <dbl>, afatal <dbl>, pop <dbl>, pop1517 <dbl>, pop1820 <dbl>, pop2124 <dbl>,
#   milestot <dbl>, unempus <dbl>, emppopus <dbl>, gsp <dbl>
# ℹ Use `print(n = ...)` to see more rows
…
